EESchema Schematic File Version 4
EELAYER 30 0
EELAYER END
$Descr A4 11693 8268
encoding utf-8
Sheet 1 1
Title "Model simulation"
Date "2021-05-26"
Rev ""
Comp "Episensors"
Comment1 "First attempt at SPICE simulation"
Comment2 ""
Comment3 ""
Comment4 ""
$EndDescr
$Comp
L Simulation_SPICE:VSIN CLK_GEN1
U 1 1 60AEB49E
P 3500 3000
F 0 "CLK_GEN1" H 3630 3091 50  0000 L CNN
F 1 "VSIN" H 3630 3000 50  0000 L CNN
F 2 "" H 3500 3000 50  0001 C CNN
F 3 "~" H 3500 3000 50  0001 C CNN
F 4 "Y" H 3500 3000 50  0001 L CNN "Spice_Netlist_Enabled"
F 5 "V" H 3500 3000 50  0001 L CNN "Spice_Primitive"
F 6 "sin(0 5 1M)" H 3630 2909 50  0000 L CNN "Spice_Model"
	1    3500 3000
	1    0    0    -1  
$EndComp
$Comp
L Simulation_SPICE:OPAMP U1
U 1 1 60AED017
P 4700 3000
F 0 "U1" H 5044 3046 50  0000 L CNN
F 1 "OPAMP" H 5044 2955 50  0000 L CNN
F 2 "" H 4700 3000 50  0001 C CNN
F 3 "~" H 4700 3000 50  0001 C CNN
F 4 "Y" H 4700 3000 50  0001 L CNN "Spice_Netlist_Enabled"
F 5 "V" H 4700 3000 50  0001 L CNN "Spice_Primitive"
	1    4700 3000
	1    0    0    -1  
$EndComp
$Comp
L Simulation_SPICE:VDC Vpos1
U 1 1 60AEE499
P 3000 2500
F 0 "Vpos1" H 3130 2591 50  0000 L CNN
F 1 "VDC" H 3130 2500 50  0000 L CNN
F 2 "" H 3000 2500 50  0001 C CNN
F 3 "~" H 3000 2500 50  0001 C CNN
F 4 "Y" H 3000 2500 50  0001 L CNN "Spice_Netlist_Enabled"
F 5 "V" H 3000 2500 50  0001 L CNN "Spice_Primitive"
F 6 "dc(100)" H 3130 2409 50  0000 L CNN "Spice_Model"
	1    3000 2500
	1    0    0    -1  
$EndComp
$Comp
L pspice:INDUCTOR L1
U 1 1 60AF3339
P 6500 3250
F 0 "L1" V 6454 3328 50  0000 L CNN
F 1 "2000H" V 6545 3328 50  0000 L CNN
F 2 "" H 6500 3250 50  0001 C CNN
F 3 "~" H 6500 3250 50  0001 C CNN
	1    6500 3250
	0    1    1    0   
$EndComp
$Comp
L pspice:INDUCTOR L2
U 1 1 60AF451D
P 7000 3250
F 0 "L2" V 7046 3206 50  0000 R CNN
F 1 "20H" V 6955 3206 50  0000 R CNN
F 2 "" H 7000 3250 50  0001 C CNN
F 3 "~" H 7000 3250 50  0001 C CNN
F 4 "L" H 7000 3250 50  0001 C CNN "Spice_Primitive"
F 5 "20" H 7000 3250 50  0001 C CNN "Spice_Model"
F 6 "Y" H 7000 3250 50  0001 C CNN "Spice_Netlist_Enabled"
	1    7000 3250
	0    -1   -1   0   
$EndComp
$Comp
L pspice:R R3
U 1 1 60AF64CA
P 6750 4000
F 0 "R3" V 6545 4000 50  0000 C CNN
F 1 "100MEG" V 6636 4000 50  0000 C CNN
F 2 "" H 6750 4000 50  0001 C CNN
F 3 "~" H 6750 4000 50  0001 C CNN
	1    6750 4000
	0    1    1    0   
$EndComp
$Comp
L pspice:R R1
U 1 1 60AF697F
P 5750 3000
F 0 "R1" V 5955 3000 50  0000 C CNN
F 1 "10" V 5864 3000 50  0000 C CNN
F 2 "" H 5750 3000 50  0001 C CNN
F 3 "~" H 5750 3000 50  0001 C CNN
	1    5750 3000
	0    -1   -1   0   
$EndComp
$Comp
L Simulation_SPICE:VDC V1
U 1 1 60AFE65C
P 3000 3500
F 0 "V1" H 3130 3591 50  0000 L CNN
F 1 "VDC" H 3130 3500 50  0000 L CNN
F 2 "" H 3000 3500 50  0001 C CNN
F 3 "~" H 3000 3500 50  0001 C CNN
F 4 "Y" H 3000 3500 50  0001 L CNN "Spice_Netlist_Enabled"
F 5 "V" H 3000 3500 50  0001 L CNN "Spice_Primitive"
F 6 "dc(100)" H 3130 3409 50  0000 L CNN "Spice_Model"
	1    3000 3500
	1    0    0    -1  
$EndComp
$Comp
L pspice:0 #GND0101
U 1 1 60AFF145
P 2500 3100
F 0 "#GND0101" H 2500 3000 50  0001 C CNN
F 1 "0" H 2500 3189 50  0000 C CNN
F 2 "" H 2500 3100 50  0001 C CNN
F 3 "~" H 2500 3100 50  0001 C CNN
	1    2500 3100
	1    0    0    -1  
$EndComp
Wire Wire Line
	2500 3100 2500 3000
Wire Wire Line
	2500 3000 3000 3000
Wire Wire Line
	3000 3000 3000 2700
Wire Wire Line
	3000 3300 3000 3000
Connection ~ 3000 3000
Wire Wire Line
	3500 2800 4150 2800
Wire Wire Line
	4150 2800 4150 2900
Wire Wire Line
	4150 2900 4400 2900
Wire Wire Line
	3500 3200 3750 3200
Wire Wire Line
	4150 3200 4150 3100
Wire Wire Line
	4150 3100 4400 3100
Wire Wire Line
	3000 2300 4600 2300
Wire Wire Line
	4600 2300 4600 2700
Wire Wire Line
	3000 3700 4600 3700
Wire Wire Line
	4600 3700 4600 3300
Wire Wire Line
	5000 3000 5500 3000
Wire Wire Line
	6000 3000 6500 3000
Wire Wire Line
	6500 3500 6500 4000
Wire Wire Line
	7000 4000 7000 3500
Connection ~ 7000 3500
$Comp
L pspice:0 #GND0102
U 1 1 60B0298A
P 3750 3350
F 0 "#GND0102" H 3750 3250 50  0001 C CNN
F 1 "0" H 3750 3439 50  0000 C CNN
F 2 "" H 3750 3350 50  0001 C CNN
F 3 "~" H 3750 3350 50  0001 C CNN
	1    3750 3350
	1    0    0    -1  
$EndComp
$Comp
L pspice:0 #GND0103
U 1 1 60B03052
P 6500 4250
F 0 "#GND0103" H 6500 4150 50  0001 C CNN
F 1 "0" H 6500 4339 50  0000 C CNN
F 2 "" H 6500 4250 50  0001 C CNN
F 3 "~" H 6500 4250 50  0001 C CNN
	1    6500 4250
	1    0    0    -1  
$EndComp
Wire Wire Line
	3750 3350 3750 3200
Connection ~ 3750 3200
Wire Wire Line
	3750 3200 4150 3200
Wire Wire Line
	6500 4250 6500 4000
Connection ~ 6500 4000
Wire Wire Line
	7000 3000 8000 3000
Wire Wire Line
	8000 3500 7000 3500
$Comp
L pspice:R R2
U 1 1 60AF5ABD
P 8000 3250
F 0 "R2" H 7932 3204 50  0000 R CNN
F 1 "0.5k" H 7932 3295 50  0000 R CNN
F 2 "" H 8000 3250 50  0001 C CNN
F 3 "~" H 8000 3250 50  0001 C CNN
	1    8000 3250
	-1   0    0    1   
$EndComp
$EndSCHEMATC
