*FDS4559 at Temp. Electrical Model (Complementary N-Ch)
*---------------------------------------------------------
.SUBCKT FDS4559CN 20 10 30 50
*20=DRAIN 10=GATE 30=SOURCE 50=VTEMP
Rg 10 11x 1
Rdu 12x 1 1u
M1 2 1 4x 4x DMOS L=1u W=1u
.MODEL DMOS NMOS(VTO=2.8 KP=31.8
+THETA=0.066666667 VMAX=1E5 LEVEL=3)
Cgs 1 5x 636p
Rd 20 4 1.65E-2 
Dds 5x 4 DDS
.MODEL DDS D(M=4.95E-1 VJ=9.25E-1 CJO=278p)
Dbody 5x 20 DBODY
.MODEL DBODY D(IS=2.88296E-11 N=1.1999639 RS=0.00063995 TT=23.74n)
Ra 4 2 1.65E-2 
Rs 5x 5 0.5m
Ls 5 30 0.5n
M2 1 8 6 6 INTER
E2 8 6 4 1 2
.MODEL INTER NMOS(VTO=0 KP=10 LEVEL=1)
Cgdmax 7 4 459p
Rcgd 7 4 10meg
Dgd 6 4 DGD
Rdgd 6 4 10meg
.MODEL DGD D(M=3.52E-1 VJ=1.56E-2 CJO=459p)
M3 7 9 1 1 INTER
E3 9 1 4 1 -2
*ZX SECTION
EOUT 4x 6x poly(2) (1x,0) (3x,0) 0 0 0 0 1
FCOPY 0 3x VSENSE 1
RIN 1x 0 1G
VSENSE 6x 5x 0
RREF 3x 0 10m
*TEMP SECTION
ED 101 0 VALUE {V(50,100)}
VAMB 100 0 25
EKP 1x 0 101 0 .031
*VTO TEMP SECTION
EVTO 102 0 101 0 .0035
EVT 12x 11x 102 0 1
*DIODE THEMO BREAKDOWN SECTION
EBL VB1 VB2 101 0 .08
VBLK VB2 0 60
D 20 DB1 DBLK
.MODEL DBLK D(IS=1E-14 CJO=.1p RS=.1)
EDB DB1 0 VB1 0 1
.ENDS FDS4559CN
*---------------------------------------------------------
*FDS4559 at Temp. Electrical Model (Complementary P-Ch)
*---------------------------------------------------------
.SUBCKT FDS4559CP 20 10 30 50
*20=DRAIN 10=GATE 30=SOURCE 50=VTEMP
Rg 10 11x 1
Rdu 12x 1 1u
M1 2 1 4x 4x DMOS L=1u W=1u
.MODEL DMOS PMOS(VTO=-2 KP=13
+THETA=0.1 VMAX=3E5 LEVEL=3)
Cgs 1 5x 750p
Rd 20 4 3.2E-2
Dds 4 5x DDS
.MODEL DDS D(M=4.22E-1 VJ=7.65E-1 CJO=253p)
Dbody 20 5x DBODY
.MODEL DBODY D(IS=4.7E-12 N=1.116224 RS=.000695 TT=30.4n)
Ra 4 2 3.2E-2
Rs 5x 5 0.5m
Ls 5 30 0.5n
M2 1 8 6 6 INTER
E2 8 6 4 1 2
.MODEL INTER PMOS(VTO=0 KP=10 LEVEL=1)
Cgdmax 7 4 652P
Dgd 4 6 DGD
Rdgd 4 6 10meg
.MODEL DGD D(M=3.2E-1 VJ=7.7E-3 CJO=652p)
M3 7 9 1 1 INTER
E3 9 1 4 1 -2
*ZX SECTION
EOUT 4x 6x poly(2) (1x,0) (3x,0) 0 0 0 0 1
FCOPY 0 3x VSENSE 1
RIN 1x 0 1G
VSENSE 6x 5x 0
RREF 3x 0 10m
*TEMP SECTION
ED 101 0 VALUE {V(50,100)}
VAMB 100 0 25
EKP 1x 0 101 0 .042
*VTO TEMP SECTION
EVTO 102 0 101 0 .004
EVT 11x 12x 102 0 1
*DIODE THEMO BREAKDOWN SECTION
EBL VB1 VB2 101 0 .08
VBLK VB2 0 60
D DB1 20 DBLK
.MODEL DBLK D(IS=1E-14 CJO=.1p RS=.1)
EDB 0 DB1 VB1 0 1
.ENDS FDS4559CP

*FDS4559 (Rev.A1) 5/17/02 **ST

