EESchema Schematic File Version 4
EELAYER 30 0
EELAYER END
$Descr A4 11693 8268
encoding utf-8
Sheet 1 1
Title "AC Biasing Voltage Amplifier"
Date "2021-07-06"
Rev "1"
Comp "Sivananthan Laboratories"
Comment1 ""
Comment2 ""
Comment3 ""
Comment4 ""
$EndDescr
$Comp
L Transistor_BJT:2N3055 Q1
U 1 1 60E8C140
P 5900 3450
F 0 "Q1" H 6090 3496 50  0000 L CNN
F 1 "2N3055" H 6090 3405 50  0000 L CNN
F 2 "Package_TO_SOT_THT:TO-3" H 6100 3375 50  0001 L CIN
F 3 "http://www.onsemi.com/pub_link/Collateral/2N3055-D.PDF" H 5900 3450 50  0001 L CNN
	1    5900 3450
	1    0    0    -1  
$EndComp
$Comp
L Device:R R1
U 1 1 60E8FEE5
P 5050 3450
F 0 "R1" V 4843 3450 50  0000 C CNN
F 1 "1000R" V 4934 3450 50  0000 C CNN
F 2 "" V 4980 3450 50  0001 C CNN
F 3 "~" H 5050 3450 50  0001 C CNN
	1    5050 3450
	0    1    1    0   
$EndComp
$Comp
L Device:R Load
U 1 1 60E91398
P 6000 2950
F 0 "Load" H 6070 2996 50  0000 L CNN
F 1 "R" H 6070 2905 50  0000 L CNN
F 2 "" V 5930 2950 50  0001 C CNN
F 3 "~" H 6000 2950 50  0001 C CNN
	1    6000 2950
	1    0    0    -1  
$EndComp
$Comp
L pspice:DIODE D1
U 1 1 60E91E96
P 5450 3750
F 0 "D1" V 5496 3622 50  0000 R CNN
F 1 "DIODE" V 5405 3622 50  0000 R CNN
F 2 "" H 5450 3750 50  0001 C CNN
F 3 "~" H 5450 3750 50  0001 C CNN
	1    5450 3750
	0    -1   -1   0   
$EndComp
$Comp
L power:GND #PWR?
U 1 1 60E93D1A
P 6000 4150
F 0 "#PWR?" H 6000 3900 50  0001 C CNN
F 1 "GND" H 6005 3977 50  0000 C CNN
F 2 "" H 6000 4150 50  0001 C CNN
F 3 "" H 6000 4150 50  0001 C CNN
	1    6000 4150
	1    0    0    -1  
$EndComp
$Comp
L power:GND #PWR?
U 1 1 60E94688
P 5450 4150
F 0 "#PWR?" H 5450 3900 50  0001 C CNN
F 1 "GND" H 5455 3977 50  0000 C CNN
F 2 "" H 5450 4150 50  0001 C CNN
F 3 "" H 5450 4150 50  0001 C CNN
	1    5450 4150
	1    0    0    -1  
$EndComp
$Comp
L power:VCC #PWR?
U 1 1 60E94A55
P 6000 2650
F 0 "#PWR?" H 6000 2500 50  0001 C CNN
F 1 "VCC" H 6017 2823 50  0000 C CNN
F 2 "" H 6000 2650 50  0001 C CNN
F 3 "" H 6000 2650 50  0001 C CNN
	1    6000 2650
	1    0    0    -1  
$EndComp
Wire Wire Line
	5200 3450 5450 3450
Wire Wire Line
	5450 3450 5450 3550
Connection ~ 5450 3450
Wire Wire Line
	5450 3450 5700 3450
Wire Wire Line
	5450 3950 5450 4150
Wire Wire Line
	6000 3650 6000 4150
Wire Wire Line
	6000 3250 6000 3200
Wire Wire Line
	6000 2650 6000 2800
Wire Wire Line
	4550 3450 4900 3450
Text GLabel 6450 3200 2    50   Input ~ 0
Out
Text GLabel 4550 3450 0    50   Input ~ 0
In
Wire Wire Line
	6450 3200 6000 3200
Connection ~ 6000 3200
Wire Wire Line
	6000 3200 6000 3100
$EndSCHEMATC
